-992
24 -8 40 -8 40 -8 24 -8 8 -8 40 -8 8 -8 24 -8 -8 -8 8 -8 -8 -8 -8 -8 -8 -8 -8 -8 -8 -8 8 -8 -8 -8 8 -8 -8 -8 8 -8 -8 -8 -8 -8 -8 8 -8 -8 8 -8 -8 -8 -16
-8 16 -8 48 -40 16 -24 -32 -40 688
136 -40 -40 752
104 -48 824
-24 -32 -16 896
-712 -240 -8 8
-712 -240 24
-976 -8
-24 -56 -72 -8 800
